
<svg width="18px" height="18px" viewBox="0 0 18 18" version="1.1" xmlns="http://www.w3.org/2000/svg" xmlns:xlink="http://www.w3.org/1999/xlink">
    <!-- Generator: Sketch 47.1 (45422) - http://www.bohemiancoding.com/sketch -->
    <desc>Created with Sketch.</desc>
    <defs></defs>
    <g id="Fighter-Profile" stroke="none" stroke-width="1" fill="none" fill-rule="evenodd">
        <g id="Desktop" transform="translate(-1400.000000, -627.000000)">
            <g id="Fighter-(Hero)" transform="translate(0.000000, 80.000000)">
                <g id="Stacked-Group-4" transform="translate(1398.000000, 449.000000)">
                    <g id="Instagram" transform="translate(2.000000, 98.000000)">
                        <rect id="Rectangle-122" stroke="#FFFFFF" stroke-width="1.2" x="0.6" y="0.6" width="16.8" height="16.8" rx="6"></rect>
                        <rect id="Rectangle-122-Copy" stroke="#FFFFFF" stroke-width="1.2" x="5.1" y="5.1" width="7.8" height="7.8" rx="3.9"></rect>
                        <rect id="Rectangle-122-Copy-2" fill="#FFFFFF" x="12.6818182" y="2.78181818" width="1.8" height="1.8" rx="0.9"></rect>
                    </g>
                </g>
            </g>
        </g>
    </g>
</svg>