
<svg width="60px" height="21px" viewBox="0 0 60 21" version="1.1" xmlns="http://www.w3.org/2000/svg" xmlns:xlink="http://www.w3.org/1999/xlink">
    <!-- Generator: Sketch 47.1 (45422) - http://www.bohemiancoding.com/sketch -->
    <desc>Created with Sketch.</desc>
    <defs></defs>
    <g id="Symbols" stroke="none" stroke-width="1" fill="none" fill-rule="evenodd">
        <g id="UI-/-Bracket-Card-/-Full-/-Hover" transform="translate(-16.000000, -66.000000)">
            <g id="Ui-/-Bracket-Card-/-Full">
                <g id="Profile-+-Name" transform="translate(16.000000, 16.000000)">
                    <g id="Thumbnail-+-Flag-+-Score">
                        <g id="Vote-CTA" transform="translate(0.000000, 50.000000)">
                            <rect id="Button" fill="#FEC837" x="0" y="0" width="60" height="21" rx="2"></rect>
                            <text id="Vote" font-family="Roboto-Black, Roboto" font-size="12" font-weight="700" line-spacing="20" letter-spacing="1" fill="#FFFFFF">
                                <tspan x="13" y="12">Vot</tspan>
                                <tspan x="34.515625" y="12">e</tspan>
                            </text>
                        </g>
                    </g>
                </g>
            </g>
        </g>
    </g>
</svg>